<?xml version="1.0" encoding="UTF-8"?>
<svg width="160px" height="160px" viewBox="0 0 160 160" version="1.1" xmlns="http://www.w3.org/2000/svg" xmlns:xlink="http://www.w3.org/1999/xlink">
    <!-- Generator: Sketch 58 (84663) - https://sketch.com -->
    <title>Logos / Mark</title>
    <desc>Created with Sketch.</desc>
    <g id="Logos-/-Mark" stroke="none" stroke-width="1" fill="none" fill-rule="evenodd">
        <path d="M45.3309524,9.87514412 L45.3330737,9.87867966 C46.4642189,8.74894867 48.270806,8.70860113 49.4488839,9.75763705 L49.5771286,9.87867966 L64.0728177,24.3743687 C65.173207,25.5512561 65.1501438,27.3982619 64.002107,28.5462987 L63.9150151,28.6300149 L63.539268,29.0095694 C48.5355872,44.5077921 48.6884524,69.2347439 63.9978638,84.5449125 L110.950462,131.49751 C112.512559,133.059608 112.512559,135.592268 110.950462,137.154365 L97.9396969,150.16513 C96.3775998,151.727227 93.8449399,151.727227 92.2828427,150.16513 L45.3309524,103.213239 C19.8140952,77.696382 19.5589266,36.4839237 44.5654467,10.6531545 L45.3309524,9.87514412 Z M67.1798854,31.9110904 C80.7888759,18.3020999 102.853409,18.3020999 116.4624,31.9110904 C129.9353,45.383991 130.070029,67.144169 116.866587,80.7828152 L116.4624,81.1936046 L95.5546663,102.101338 C93.492698,104.163306 90.1495869,104.163306 88.0876187,102.101338 L67.1798854,81.1936046 L66.7756983,80.7828152 C53.5722557,67.144169 53.7069847,45.383991 67.1798854,31.9110904 Z M79.9367583,44.2235631 C73.132263,51.0280584 73.132263,62.060325 79.9367583,68.8648202 C86.7412536,75.6693155 97.7735202,75.6693155 104.578015,68.8648202 C111.382511,62.060325 111.382511,51.0280584 104.578015,44.2235631 C97.7735202,37.4190679 86.7412536,37.4190679 79.9367583,44.2235631 Z" id="Shape" stroke-opacity="0.3" stroke="#000000" stroke-width="0.1" fill="#124E5D"></path>
        <path d="M111.374726,92.8894802 C112.936823,91.3273831 115.469483,91.3273831 117.03158,92.8894802 L133.295036,109.152936 C134.857133,110.715033 134.857133,113.247693 133.295036,114.80979 L119.860007,128.244819 C118.29791,129.806916 115.76525,129.806916 114.203153,128.244819 L97.9396969,111.981363 C96.3775998,110.419266 96.3775998,107.886606 97.9396969,106.324509 L111.374726,92.8894802 Z" id="Path" stroke-opacity="0.1" stroke="#000000" stroke-width="0.1" fill="#FEBD55"></path>
    </g>
</svg>