<?xml version="1.0" encoding="UTF-8"?>
<svg width="174px" height="185px" viewBox="0 0 174 185" version="1.1" xmlns="http://www.w3.org/2000/svg" xmlns:xlink="http://www.w3.org/1999/xlink">
    <title>Oval icon</title>
    <g id="🖥-Website" stroke="none" stroke-width="1" fill="none" fill-rule="evenodd">
        <g id="Home--Redesign-Copy" transform="translate(-84.000000, -8287.000000)" stroke="#4E7B86" stroke-width="2">
            <g id="newsletter-section" transform="translate(0.000000, 8287.000000)">
                <g id="Oval-icon" transform="translate(84.000000, 0.000000)">
                    <circle id="Oval" cx="80" cy="80" r="79"></circle>
                    <circle id="Oval-Copy" cx="134" cy="145" r="39"></circle>
                </g>
            </g>
        </g>
    </g>
</svg>